HistData.com (c) 2012
File: DAT_NT_USDMXN_M1_202207.csv Status Report

Gap of 154s found between 20220703171221 and 20220703171501.
Gap of 1350s found between 20220703171502 and 20220703173738.
Gap of 86s found between 20220703173738 and 20220703173911.
Gap of 368s found between 20220703173911 and 20220703174525.
Gap of 116s found between 20220703174943 and 20220703175145.
Gap of 105s found between 20220703175145 and 20220703175336.
Gap of 105s found between 20220703175336 and 20220703175528.
Gap of 255s found between 20220703175633 and 20220703180055.
Gap of 201s found between 20220704170107 and 20220704170434.
Gap of 91s found between 20220704171927 and 20220704172104.
Gap of 74s found between 20220704172114 and 20220704172234.
Gap of 176s found between 20220704172234 and 20220704172537.
Gap of 100s found between 20220704172648 and 20220704172834.
Gap of 78s found between 20220704173009 and 20220704173133.
Gap of 91s found between 20220704173954 and 20220704174131.
Gap of 74s found between 20220704174943 and 20220704175104.
Gap of 211s found between 20220705170030 and 20220705170408.
Gap of 302s found between 20220705171648 and 20220705172157.
Gap of 144s found between 20220705172531 and 20220705172801.
Gap of 76s found between 20220706170333 and 20220706170456.
Gap of 61s found between 20220707000948 and 20220707001055.
Gap of 91s found between 20220707191745 and 20220707191922.

Average tick interval: 5523 miliseconds.
Maximum tick interval found: 1350250 miliseconds.
